^F:\STUDIA\CPP\ONBITBUCKET\OPENMP\OPENMP\OPENMP\PCH.CPP
F:\STUDIA\CPP\ONBITBUCKET\OPENMP\OPENMP\OPENMP\DEBUG\OPENMP.PCH
F:\STUDIA\CPP\ONBITBUCKET\OPENMP\OPENMP\OPENMP\DEBUG\VC141.PDB
F:\STUDIA\CPP\ONBITBUCKET\OPENMP\OPENMP\OPENMP\DEBUG\VC141.IDB
F:\STUDIA\CPP\ONBITBUCKET\OPENMP\OPENMP\OPENMP\DEBUG\PCH.OBJ
^F:\STUDIA\CPP\ONBITBUCKET\OPENMP\OPENMP\OPENMP\OPENMP.CPP
F:\STUDIA\CPP\ONBITBUCKET\OPENMP\OPENMP\OPENMP\DEBUG\VC141.PDB
F:\STUDIA\CPP\ONBITBUCKET\OPENMP\OPENMP\OPENMP\DEBUG\VC141.IDB
F:\STUDIA\CPP\ONBITBUCKET\OPENMP\OPENMP\OPENMP\DEBUG\OPENMP.OBJ
